…
### Unindo as bases de dados, ou seja, repetindo os dados do solo para cada dia de avaliação

``` r
data_sp <- left_join(temporal_sp, spatial_sp, by="id") %>% 
  select(-numero) %>% 
  mutate(data = make_date(year= ano, month=mes, day=dia)) %>% 
  relocate(id,data)
```

``` r
tibble(xnames=names(data_eu), ynames=names(data_sp)) %>% 
  mutate(logic_test = xnames == ynames)
#> # A tibble: 21 × 3
#>    xnames ynames logic_test
#>    <chr>  <chr>  <lgl>     
#>  1 id     id     TRUE      
#>  2 data   data   TRUE      
#>  3 ano    ano    TRUE      
#>  4 mes    mes    TRUE      
#>  5 dia    dia    TRUE      
#>  6 F      F      TRUE      
#>  7 T      T      TRUE      
#>  8 U      U      TRUE      
#>  9 Al     Al     TRUE      
#> 10 Ca     Ca     TRUE      
#> # ℹ 11 more rows
```
…
